…
    ##   avg_age
    ## 1 7.11866

``` r
#average age by breed.
distinct_dogz %>% 
  group_by(breed_name) %>% 
  summarize (avg_age = mean(dog_age)) %>% 
  arrange(desc(avg_age))
```

    ## # A tibble: 293 x 2
    ##    breed_name              avg_age
    ##    <chr>                     <dbl>
    ##  1 Belgian Tervuren           11.9
    ##  2 Miniature Fox Terrier      11  
    ##  3 Peruvian Inca Orchid       11  
    ##  4 Russian Wolfhound          11  
    ##  5 Puli                       10.8
    ##  6 Gordon Setter              10.7
    ##  7 West High White Terrier    10.7
    ##  8 Dachshund Smooth Coat      10.7
    ##  9 Sussex Spaniel             10.5
    ## 10 Poodle, Standard           10.5
    ## # … with 283 more rows
…
Plot \#8 Avg age of dog by zip - trying to map by lat/long of zip codes
but it doesnt look like much

``` r
#average age by zip code.
distinct_dogz %>% 
  group_by(zip_code) %>% 
  summarize (avg_age = mean(dog_age))
```

    ## # A tibble: 211 x 2
    ##    zip_code avg_age
    ##       <int>   <dbl>
    ##  1    10001    6.64
    ##  2    10002    6.93
    ##  3    10003    7.15
    ##  4    10004    6.54
    ##  5    10005    6.29
    ##  6    10006    6.44
    ##  7    10007    6.69
    ##  8    10008   11   
    ##  9    10009    7.08
    ## 10    10010    7.13
    ## # … with 201 more rows
…
